<svg width="24" height="24" viewBox="0 0 24 24" fill="none" xmlns="http://www.w3.org/2000/svg">
<path d="M17.116 16.996H19.25C19.788 16.996 20 16.822 19.998 16.55C19.998 15.974 19.051 14.958 18.248 14.214L18.2123 14.1809C17.122 13.1693 17.0813 13.1316 18.039 11.89C19.24 10.33 20.812 8.33302 19.422 8.33302H16.768C16.253 8.33302 16.217 8.62202 16.034 9.05502C15.37 10.619 14.11 12.646 13.631 12.336C13.129 12.013 13.359 10.732 13.398 8.82902C13.408 8.32602 13.406 7.98202 12.637 7.80302C12.218 7.70702 11.809 7.66602 11.432 7.66602C9.916 7.66602 8.87 8.30202 9.464 8.41202C10.511 8.60702 10.411 10.874 10.167 11.852C9.742 13.556 8.144 10.503 7.477 8.98202C7.317 8.61702 7.268 8.33302 6.694 8.33302H4.524C4.196 8.33302 4 8.44002 4 8.67702C4 9.07902 5.974 13.157 7.857 15.19C9.695 17.174 11.511 16.996 12.775 16.996C13.18 16.996 13.347 16.724 13.341 16.385C13.32 15.108 13.818 14.42 14.715 15.317C15.707 16.309 15.911 16.996 17.116 16.996Z" fill="#4D75A2"/>
</svg>
