<svg width="32" height="32" viewBox="0 0 32 32" xmlns="http://www.w3.org/2000/svg">
<path d="M20.4819 8.18312L11.5 2.4375L2 9V30L11.5181 23.8169L20.5 29.5625L30 23V2L20.4819 8.18312ZM19.5 26.3125L12.5 21.8125V5.6875L19.5 10.1875V26.3125Z"/>
</svg>
